…
brfss = brfss_smart2010 %>% 
  janitor::clean_names() %>%
  filter(
    topic == "Overall Health" |
    response == "Poor" | 
    response == "Fair" |
    response == "Very Good" |
    response == "Excellent") %>%
  select(-location_id, -data_value_footnote_symbol, -data_value_footnote) %>% 
  mutate(response = ordered(response, c("Poor", "Fair", "Good", "Very good", "Excellent"))) 

brfss
```

    ## # A tibble: 10,625 x 20
    ##     year locationabbr locationdesc class topic question response
    ##    <int> <chr>        <chr>        <chr> <chr> <chr>    <ord>   
    ##  1  2010 AL           AL - Jeffer… Heal… Over… How is … Excelle…
    ##  2  2010 AL           AL - Jeffer… Heal… Over… How is … Very go…
    ##  3  2010 AL           AL - Jeffer… Heal… Over… How is … Good    
    ##  4  2010 AL           AL - Jeffer… Heal… Over… How is … Fair    
    ##  5  2010 AL           AL - Jeffer… Heal… Over… How is … Poor    
    ##  6  2010 AL           AL - Mobile… Heal… Over… How is … Excelle…
    ##  7  2010 AL           AL - Mobile… Heal… Over… How is … Very go…
    ##  8  2010 AL           AL - Mobile… Heal… Over… How is … Good    
    ##  9  2010 AL           AL - Mobile… Heal… Over… How is … Fair    
    ## 10  2010 AL           AL - Mobile… Heal… Over… How is … Poor    
    ## # … with 10,615 more rows, and 13 more variables: sample_size <int>,
    ## #   data_value <dbl>, confidence_limit_low <dbl>,
    ## #   confidence_limit_high <dbl>, display_order <int>,
    ## #   data_value_unit <chr>, data_value_type <chr>, data_source <chr>,
    ## #   class_id <chr>, topic_id <chr>, question_id <chr>, respid <chr>,
    ## #   geo_location <chr>
…
    ## Parsed with column specification:
    ## cols(
    ##   .default = col_double(),
    ##   day = col_character()
    ## )

    ## See spec(...) for full column specifications.

``` r
prob_3
```

    ## # A tibble: 35 x 1,444
    ##     week day_id day   activity_1 activity_2 activity_3 activity_4
    ##    <dbl>  <dbl> <fct>      <dbl>      <dbl>      <dbl>      <dbl>
    ##  1     1      1 Mond…       88.4       82.2       64.4       70.0
    ##  2     1      2 Tues…        1          1          1          1  
    ##  3     1      3 Wedn…        1          1          1          1  
    ##  4     1      4 Thur…        1          1          1          1  
    ##  5     1      5 Frid…       47.4       48.8       46.9       35.8
    ##  6     1      6 Satu…       64.8       59.5       73.7       45.7
    ##  7     1      7 Sund…       71.1      103.        68.5       45.4
    ##  8     2      8 Mond…      675        542       1010        779  
    ##  9     2      9 Tues…      291        335        393        335  
    ## 10     2     10 Wedn…       64         11          1          1  
    ## # … with 25 more rows, and 1,437 more variables: activity_5 <dbl>,
    ## #   activity_6 <dbl>, activity_7 <dbl>, activity_8 <dbl>,
    ## #   activity_9 <dbl>, activity_10 <dbl>, activity_11 <dbl>,
    ## #   activity_12 <dbl>, activity_13 <dbl>, activity_14 <dbl>,
    ## #   activity_15 <dbl>, activity_16 <dbl>, activity_17 <dbl>,
    ## #   activity_18 <dbl>, activity_19 <dbl>, activity_20 <dbl>,
    ## #   activity_21 <dbl>, activity_22 <dbl>, activity_23 <dbl>,
    ## #   activity_24 <dbl>, activity_25 <dbl>, activity_26 <dbl>,
    ## #   activity_27 <dbl>, activity_28 <dbl>, activity_29 <dbl>,
…
